%YAML 1.1
%TAG !u! tag:unity3d.com,2011:
--- !u!114 &11400000
MonoBehaviour:
  m_ObjectHideFlags: 0
  m_CorrespondingSourceObject: {fileID: 0}
  m_PrefabInstance: {fileID: 0}
  m_PrefabAsset: {fileID: 0}
  m_GameObject: {fileID: 0}
  m_Enabled: 1
  m_EditorHideFlags: 0
  m_Script: {fileID: 11500000, guid: a39b4af8dd1bf5442b3ac6bec8548adf, type: 3}
  m_Name: Delete
  m_EditorClassIdentifier: 
  itemName: Delete
  character: Charlie
  sprite: {fileID: 0}
  cost: 230
  BackgroundColor: {r: 0, g: 0, b: 0, a: 0}
