%YAML 1.1
%TAG !u! tag:unity3d.com,2011:
--- !u!78 &1
TagManager:
  serializedVersion: 2
  tags:
  - Teleport1
  - Menu
  - EnemiesGroup
  - Tree
  - NoTree
  - ShopLevelArc2
  - ShopLevelArc4
  - ShopLevelArc7
  - CollisionShop
  - CollisionWorld
  - Arcade
  - Panal
  - SliderHP
  - SliderMana
  layers:
  - Default
  - TransparentFX
  - Ignore Raycast
  - 
  - Water
  - UI
  - 
  - 
  - PostProcessing
  - 
  - 
  - 
  - 
  - 
  - 
  - 
  - 
  - 
  - 
  - 
  - 
  - 
  - 
  - 
  - 
  - 
  - 
  - 
  - 
  - 
  - 
  - 
  m_SortingLayers:
  - name: Default
    uniqueID: 0
    locked: 0
